…
## Inspect the data

You can see the contents of a dataframe by typing its name in the R
console:

``` r
gapminder
```

    # A tibble: 1,704 × 6
       country     continent  year lifeExp      pop gdpPercap
       <chr>       <chr>     <dbl>   <dbl>    <dbl>     <dbl>
     1 Afghanistan Asia       1952    28.8  8425333      779.
     2 Afghanistan Asia       1957    30.3  9240934      821.
     3 Afghanistan Asia       1962    32.0 10267083      853.
     4 Afghanistan Asia       1967    34.0 11537966      836.
     5 Afghanistan Asia       1972    36.1 13079460      740.
     6 Afghanistan Asia       1977    38.4 14880372      786.
     7 Afghanistan Asia       1982    39.9 12881816      978.
     8 Afghanistan Asia       1987    40.8 13867957      852.
     9 Afghanistan Asia       1992    41.7 16317921      649.
    10 Afghanistan Asia       1997    41.8 22227415      635.
    # ℹ 1,694 more rows
…
- `pop`: Population
- `lifeExp`: Life expectancy (寿命)
- `gdpPercap`: GDP per capita (一人当たりの国内総生産)

## Sort data with `arrange()`

First provide the **name of the dataframe**, then the **column** to sort
by:

``` r
arrange(gapminder, lifeExp)
```

    # A tibble: 1,704 × 6
       country      continent  year lifeExp     pop gdpPercap
       <chr>        <chr>     <dbl>   <dbl>   <dbl>     <dbl>
     1 Rwanda       Africa     1992    23.6 7290203      737.
     2 Afghanistan  Asia       1952    28.8 8425333      779.
     3 Gambia       Africa     1952    30    284320      485.
     4 Angola       Africa     1952    30.0 4232095     3521.
     5 Sierra Leone Africa     1952    30.3 2143249      880.
     6 Afghanistan  Asia       1957    30.3 9240934      821.
     7 Cambodia     Asia       1977    31.2 6978607      525.
     8 Mozambique   Africa     1952    31.3 6446316      469.
     9 Sierra Leone Africa     1957    31.6 2295678     1004.
    10 Burkina Faso Africa     1952    32.0 4469979      543.
    # ℹ 1,694 more rows

The default setting is to sort from **small** to **large**. To sort in
the reverse (**descending**) direction, use `desc()`:

``` r
arrange(gapminder, desc(lifeExp))
```

    # A tibble: 1,704 × 6
       country          continent  year lifeExp       pop gdpPercap
       <chr>            <chr>     <dbl>   <dbl>     <dbl>     <dbl>
     1 Japan            Asia       2007    82.6 127467972    31656.
     2 Hong Kong, China Asia       2007    82.2   6980412    39725.
     3 Japan            Asia       2002    82   127065841    28605.
     4 Iceland          Europe     2007    81.8    301931    36181.
     5 Switzerland      Europe     2007    81.7   7554661    37506.
     6 Hong Kong, China Asia       2002    81.5   6762476    30209.
     7 Australia        Oceania    2007    81.2  20434176    34435.
     8 Spain            Europe     2007    80.9  40448191    28821.
     9 Sweden           Europe     2007    80.9   9031088    33860.
    10 Israel           Asia       2007    80.7   6426679    25523.
    # ℹ 1,694 more rows

You can sort on **multiple** columns. Ties will be sorted by the next
column:

``` r
arrange(gapminder, continent, lifeExp)
```

    # A tibble: 1,704 × 6
       country       continent  year lifeExp     pop gdpPercap
       <chr>         <chr>     <dbl>   <dbl>   <dbl>     <dbl>
     1 Rwanda        Africa     1992    23.6 7290203      737.
     2 Gambia        Africa     1952    30    284320      485.
     3 Angola        Africa     1952    30.0 4232095     3521.
     4 Sierra Leone  Africa     1952    30.3 2143249      880.
     5 Mozambique    Africa     1952    31.3 6446316      469.
     6 Sierra Leone  Africa     1957    31.6 2295678     1004.
     7 Burkina Faso  Africa     1952    32.0 4469979      543.
     8 Angola        Africa     1957    32.0 4561361     3828.
     9 Gambia        Africa     1957    32.1  323150      521.
    10 Guinea-Bissau Africa     1952    32.5  580653      300.
    # ℹ 1,694 more rows

## Narrow down columns with `select()`

First provide the **name of the dataframe**, then the **columns** to
select:

``` r
select(gapminder, year, country, gdpPercap)
```

    # A tibble: 1,704 × 3
        year country     gdpPercap
       <dbl> <chr>           <dbl>
     1  1952 Afghanistan      779.
     2  1957 Afghanistan      821.
     3  1962 Afghanistan      853.
     4  1967 Afghanistan      836.
     5  1972 Afghanistan      740.
     6  1977 Afghanistan      786.
     7  1982 Afghanistan      978.
     8  1987 Afghanistan      852.
     9  1992 Afghanistan      649.
    10  1997 Afghanistan      635.
    # ℹ 1,694 more rows

## Saving your output

Notice that although we have used several functions, `gapminder` is
still the same:

``` r
gapminder
```

    # A tibble: 1,704 × 6
       country     continent  year lifeExp      pop gdpPercap
       <chr>       <chr>     <dbl>   <dbl>    <dbl>     <dbl>
     1 Afghanistan Asia       1952    28.8  8425333      779.
     2 Afghanistan Asia       1957    30.3  9240934      821.
     3 Afghanistan Asia       1962    32.0 10267083      853.
     4 Afghanistan Asia       1967    34.0 11537966      836.
     5 Afghanistan Asia       1972    36.1 13079460      740.
     6 Afghanistan Asia       1977    38.4 14880372      786.
     7 Afghanistan Asia       1982    39.9 12881816      978.
     8 Afghanistan Asia       1987    40.8 13867957      852.
     9 Afghanistan Asia       1992    41.7 16317921      649.
    10 Afghanistan Asia       1997    41.8 22227415      635.
    # ℹ 1,694 more rows
…
The pipe takes the output from one function and passes it to the input
of the next function. You can think of it as saying “and then”:

- Do this **and then** do this, **and then** do this…
- Do this **`%>%`** do this, **`%>%`** do this…

We can even use the pipe just with one function. Read the following as
“start with `gapminder` **and then** select only year, country, and
population”:

``` r
gapminder %>% select(year, country, pop)
```

    # A tibble: 1,704 × 3
        year country          pop
       <dbl> <chr>          <dbl>
     1  1952 Afghanistan  8425333
     2  1957 Afghanistan  9240934
     3  1962 Afghanistan 10267083
     4  1967 Afghanistan 11537966
     5  1972 Afghanistan 13079460
     6  1977 Afghanistan 14880372
     7  1982 Afghanistan 12881816
     8  1987 Afghanistan 13867957
     9  1992 Afghanistan 16317921
    10  1997 Afghanistan 22227415
    # ℹ 1,694 more rows

This becomes very useful when we want to do **multiple steps**. Read
this as “start with `gapminder`, **and then** select only year, country,
and population, **and then** arrange by year”:

``` r
gapminder %>% select(year, country, pop) %>% arrange(year)
```

    # A tibble: 1,704 × 3
        year country          pop
       <dbl> <chr>          <dbl>
     1  1952 Afghanistan  8425333
     2  1952 Albania      1282697
     3  1952 Algeria      9279525
     4  1952 Angola       4232095
     5  1952 Argentina   17876956
     6  1952 Australia    8691212
     7  1952 Austria      6927772
     8  1952 Bahrain       120447
     9  1952 Bangladesh  46886859
    10  1952 Belgium      8730405
    # ℹ 1,694 more rows

We can make it easier to read by putting each step on its own line (the
result is exactly the same, since R ignores spaces and line breaks):

``` r
gapminder %>%
  select(year, country, pop) %>%
  arrange(year)
```

    # A tibble: 1,704 × 3
        year country          pop
       <dbl> <chr>          <dbl>
     1  1952 Afghanistan  8425333
     2  1952 Albania      1282697
     3  1952 Algeria      9279525
     4  1952 Angola       4232095
     5  1952 Argentina   17876956
     6  1952 Australia    8691212
     7  1952 Austria      6927772
     8  1952 Bahrain       120447
     9  1952 Bangladesh  46886859
    10  1952 Belgium      8730405
    # ℹ 1,694 more rows

Pipes are very useful because you don’t have to save each intermediate
step. This is a very useful way to manipulate data. Therefore, the rest
of the lesson will use the pipe, to help you get used to it.

## Subset rows with `filter()`

Use the `filter()` function to only keep rows that **meet a certain
condition**. For example, let’s only keep the data in Europe:

``` r
gapminder %>% filter(continent == "Europe")
```

    # A tibble: 360 × 6
       country continent  year lifeExp     pop gdpPercap
       <chr>   <chr>     <dbl>   <dbl>   <dbl>     <dbl>
     1 Albania Europe     1952    55.2 1282697     1601.
     2 Albania Europe     1957    59.3 1476505     1942.
     3 Albania Europe     1962    64.8 1728137     2313.
     4 Albania Europe     1967    66.2 1984060     2760.
     5 Albania Europe     1972    67.7 2263554     3313.
     6 Albania Europe     1977    68.9 2509048     3533.
     7 Albania Europe     1982    70.4 2780097     3631.
     8 Albania Europe     1987    72   3075321     3739.
     9 Albania Europe     1992    71.6 3326498     2497.
    10 Albania Europe     1997    73.0 3428038     3193.
    # ℹ 350 more rows

## Modify data with `mutate()`

For example, we could change the units of population to millions of
people:

``` r
gapminder %>% mutate(pop = pop/1000000)
```

    # A tibble: 1,704 × 6
       country     continent  year lifeExp   pop gdpPercap
       <chr>       <chr>     <dbl>   <dbl> <dbl>     <dbl>
     1 Afghanistan Asia       1952    28.8  8.43      779.
     2 Afghanistan Asia       1957    30.3  9.24      821.
     3 Afghanistan Asia       1962    32.0 10.3       853.
     4 Afghanistan Asia       1967    34.0 11.5       836.
     5 Afghanistan Asia       1972    36.1 13.1       740.
     6 Afghanistan Asia       1977    38.4 14.9       786.
     7 Afghanistan Asia       1982    39.9 12.9       978.
     8 Afghanistan Asia       1987    40.8 13.9       852.
     9 Afghanistan Asia       1992    41.7 16.3       649.
    10 Afghanistan Asia       1997    41.8 22.2       635.
    # ℹ 1,694 more rows

If we provide a new column name, that column will be added

``` r
gapminder %>% mutate(pop_mil = pop/1000000)
```

    # A tibble: 1,704 × 7
       country     continent  year lifeExp      pop gdpPercap pop_mil
       <chr>       <chr>     <dbl>   <dbl>    <dbl>     <dbl>   <dbl>
     1 Afghanistan Asia       1952    28.8  8425333      779.    8.43
     2 Afghanistan Asia       1957    30.3  9240934      821.    9.24
     3 Afghanistan Asia       1962    32.0 10267083      853.   10.3 
     4 Afghanistan Asia       1967    34.0 11537966      836.   11.5 
     5 Afghanistan Asia       1972    36.1 13079460      740.   13.1 
     6 Afghanistan Asia       1977    38.4 14880372      786.   14.9 
     7 Afghanistan Asia       1982    39.9 12881816      978.   12.9 
     8 Afghanistan Asia       1987    40.8 13867957      852.   13.9 
     9 Afghanistan Asia       1992    41.7 16317921      649.   16.3 
    10 Afghanistan Asia       1997    41.8 22227415      635.   22.2 
    # ℹ 1,694 more rows
…
## Use `group_by()` to do calculations per group

However, it is often more useful to calculate such summary statistics
for **particular groups**. To do this, first specify the groups with
`group_by()`:

``` r
gapminder %>% group_by(continent)
```

    # A tibble: 1,704 × 6
    # Groups:   continent [5]
       country     continent  year lifeExp      pop gdpPercap
       <chr>       <chr>     <dbl>   <dbl>    <dbl>     <dbl>
     1 Afghanistan Asia       1952    28.8  8425333      779.
     2 Afghanistan Asia       1957    30.3  9240934      821.
     3 Afghanistan Asia       1962    32.0 10267083      853.
     4 Afghanistan Asia       1967    34.0 11537966      836.
     5 Afghanistan Asia       1972    36.1 13079460      740.
     6 Afghanistan Asia       1977    38.4 14880372      786.
     7 Afghanistan Asia       1982    39.9 12881816      978.
     8 Afghanistan Asia       1987    40.8 13867957      852.
     9 Afghanistan Asia       1992    41.7 16317921      649.
    10 Afghanistan Asia       1997    41.8 22227415      635.
    # ℹ 1,694 more rows
…
